  __  __    ___        _               _       ____       _      ____                ____   __   __  _   _    ____ 
 |  \/  |  / _ \      | |             | |     |  _ \     / \    |  _ \              / ___|  \ \ / / | \ | |  / ___|
 | |\/| | | | | |  _  | |    _____    | |     | | | |   / _ \   | |_) |    _____    \___ \   \ V /  |  \| | | |    
 | |  | | | |_| | | |_| |   |_____|   | |___  | |_| |  / ___ \  |  __/    |_____|    ___) |   | |   | |\  | | |___ 
 |_|  |_|  \___/   \___/              |_____| |____/  /_/   \_\ |_|                 |____/    |_|   |_| \_|  \____|
                                                                                                                   